﻿{
    "culture": {
        "languages": [
            { "id": 1, "code": "es", "name": "Español", "default": true },
            { "id": 2, "code": "en", "name": "English" }
        ]
    },
    "restmodules": [
      {
        "url": "http://10.80.1.46:5994/api",
        "name": "ApiCore",
        "services": [
          {
            "name": "Auth",
            "descriptor": "Auth.svc"
          },
          {
            "name": "Membresia",
            "descriptor": "Membresia.svc"
          },
          {
            "name": "General",
            "descriptor": "General.svc"
          }
        ]
      },
      {
        "name": "ApiNotification",
        "url": "http://10.80.1.72:8000/api_notifications/"
      }
    ]
}